{  
    "customerOrder":{  
        "tcCompanyId":"1",
        "orderNumber":"",
        "orderCapturedDate":"12/23/2015",
        "externalOrderNumber":"5554528053",
		"enteredBy":"",
		"enteredLocation":"",
        "entryType":"WEB",
        "orderConfirmed":true,
        "onHold":false,
		"minimizeShipments":true,
        "orderType":"US-TOYS-WEB",
        "paymentStatus":"Authorized",
        "orderCancelled":false,
		"reasonCode":"",
        "orderSubtotal":0.0,
        "orderTotal":0.0,
        "customerInfo":{  
            "externalCustomerId":"1234578",
            "customerUserId":"dummy@dummy.com",
            "customerFirstName":"Pooja",
            "customerLastName":"Lodha",
            "customerPhone":"9736173708",
            "customerEmail":"dummy@dummy.com"
        },
        "paymentDetails":{  
            "paymentDetail":[  
                {  
                    "externalPaymentDetailId":"20151104142320",
                    "paymentMethod":"Credit Card",
                    "cardType":"VISA",
                    "accountNumber":"**********1234",
                    "accountDisplayNumber":"1234",
                    "nameOnCard":"Jane Smith",
                    "cardExpiryMonth":"12",
                    "cardExpiryYear":"19",
                    "securityCode":"123",					
                    "paymentEntryType":"Web",
                    "authorizationAmount":53.45,
                    "chargeSequence":"1",
                    "billToDetail":{  
                        "firstName":"Jane",
                        "lastName":"Smith",
                        "addressLine1":"1 Geoffrey Way",
                        "city":"Wayne",
                        "stateProv":"NJ",
                        "country":"US",
                        "postalCode":"07470-2035",
                        "phone":"9736173708",
                        "email":"dummy@dummy.com"
                    },
                    "paymentTransactions":{  
                        "paymentTransaction":[  
                            {  
                                "externalPaymentTransactionId":"12345",
                                "requestedAmount":53.45,
                                "requestId":"PayeezId12345",
                                "requestToken":"BAMSTOKEN12345",
                                "requestedDTTM":"11/04/15 12:32 EST",
                                "processedAmount":53.45,
                                "transactionDTTM":"11/04/15 12:32 EST",
                                "transactionExpDate":"11/11/15",
                                "transactionType":"Authorization",
                                "transactionDecision":"Success",
                                "transactionTag":"BAMSTransactionTag",
                                "CAVV":"12121212",
                                "XID":"12121212",
                                "ECIFLAG":"12121212",
                                "payerID":"",
                                "paypalTransactionid":"",
								"recordStatus":"Closed"
                            },
                            {  
                                "externalPaymentTransactionId":"12345",
                                "requestedAmount":53.45,
                                "requestId":"PayeezId12345",
                                "requestToken":"BAMSTOKEN12345",
                                "requestedDTTM":"11/04/15 12:32 EST",
                                "processedAmount":53.45,
                                "transactionDTTM":"11/04/15 12:32 EST",
                                "transactionExpDate":"11/11/15",
                                "transactionType":"Authorization",
                                "transactionDecision":"Success",
                                "transactionTag":"BAMSTransactionTag",
                                "CAVV":"12121212",
                                "XID":"12121212",
                                "ECIFLAG":"12121212",
                                "payerID":"",
                                "paypalTransactionid":"",
								"recordStatus":"Closed"
                            }
                        ]
                    }
                },
				{  
                    "externalPaymentDetailId":"20151104142320",
                    "paymentMethod":"Credit Card",
                    "cardType":"VISA",
                    "accountNumber":"**********1234",
                    "accountDisplayNumber":"1234",
                    "nameOnCard":"Jane Smith",
                    "cardExpiryMonth":"12",
                    "cardExpiryYear":"19",
                    "paymentEntryType":"Web",
                    "authorizationAmount":53.45,
                    "chargeSequence":"1",
                    "billToDetail":{  
                        "firstName":"Jane",
                        "lastName":"Smith",
                        "addressLine1":"1 Geoffrey Way",
                        "addressLine2":"",
                        "addressLine3":"",
                        "city":"Wayne",
                        "stateProv":"NJ",
                        "country":"US",
                        "postalCode":"07470-2035",
                        "phone":"9736173708",
                        "email":"dummy@dummy.com"
                    },
                    "paymentTransactions":{  
                        "paymentTransaction":[  
                            {  
                                "externalPaymentTransactionId":"12345",
                                "requestedAmount":53.45,
                                "requestId":"PayeezId12345",
                                "requestToken":"BAMSTOKEN12345",
                                "requestedDTTM":"11/04/15 12:32 EST",
                                "processedAmount":53.45,
                                "transactionDTTM":"11/04/15 12:32 EST",
                                "transactionExpDate":"11/11/15",
                                "transactionType":"Authorization",
                                "transactionDecision":"Success",
                                "transactionTag":"BAMSTransactionTag",
                                "CAVV":"12121212",
                                "XID":"12121212",
                                "ECIFLAG":"12121212",
                                "payerID":"",
                                "paypalTransactionid":"",
								"recordStatus":"Closed"
                            },
                            {  
                                "externalPaymentTransactionId":"12345",
                                "requestedAmount":53.45,
                                "requestId":"PayeezId12345",
                                "requestToken":"BAMSTOKEN12345",
                                "requestedDTTM":"11/04/15 12:32 EST",
                                "processedAmount":53.45,
                                "transactionDTTM":"11/04/15 12:32 EST",
                                "transactionExpDate":"11/11/15",
                                "transactionType":"Authorization",
                                "transactionDecision":"Success",
                                "transactionTag":"BAMSTransactionTag",
                                "CAVV":"12121212",
                                "XID":"12121212",
                                "ECIFLAG":"12121212",
                                "payerID":"",
                                "paypalTransactionid":"",
								"recordStatus":"Closed"
                            }
                        ]
                    }
                }
            ]
        },
        "referenceFields":{  
            "referenceField1":"T",
            "referenceField4":"N",
            "referenceField5":"ECON",
            "referenceField6":"ECON",
            "referenceField7":"ECON",
            "referenceField10":"1234456789",
            "referenceNumber1":10.25,
            "referenceNumber2":20.55
        },
        "orderLines":{  
            "orderLine":[  
                {  
                    "orderLineNumber":"1",
                    "itemId":"EF22C94C",
                    "isGift":false,
					"lineTotal":20.00,
					"unitPriceAmount":9.99,
                    "priceDetails":{  
                        "price":19.99,
                        "extendedPrice":119.94,
                        "isPriceOverridden":false
                    },
                    "orderedQuantity":5,
                    "orderedQtyUOM":"Unit",
                    "shippingInfo":{  
                        "shipVia":"1DAY",
                        "deliveryOption":"Ship to address",
						"shipToFacility":"123",
                        "shippingAddress":{  
                            "firstName":"Jane",
                            "lastName":"Smith",
                            "addressLine1":"1 Geoffrey Way",
                            "addressLine2":"",
                            "addressLine3":"",
                            "city":"Wayne",
                            "stateProv":"NJ",
                            "country":"US",
                            "postalCode":"07470-2035",
                            "phone":"9736173708",
                            "email":"dummy@test.com"
                        }
                    },
					"allocationInfo" : {
						"fulfillmentFacility" : "6182"
					},
                    "discountDetails":{  
                        "discountDetail":[  
                            {  
                                "extDiscountDetailId":"12345",
                                "extDiscountId":"123",
                                "discountType":"Coupon",
                                "discountAmount":10.00,
                                "referenceField1":"V",
                                "referenceField2":"coupon12345",
                                "referenceField3":"10.00",
                                "referenceField4":"Item-EF22C94C",
                                "referenceField5":"TRU coupon 10 off"
                            },
                            {  
                                "extDiscountDetailId":"12346",
                                "discountAmount":10.00,
                                "referenceField1":"V",
                                "referenceField2":"shipping12345",
                                "referenceField3":"10.00",
                                "referenceField4":"Shipping 10-EF22C94C",
                                "referenceField5":"Shipping discount 10% off"
                            }
                        ]
                    },
                    "taxDetails":{  
                        "taxDetail":[  
                            {  
                                "requestType":"Quotation",
                                "taxCategory":"Sales Tax",
                                "taxLocationName":"State",
                                "taxName":"NJ",
                                "taxAmount":4.00,
                                "taxDTTM":"11/04/15 12:32 EST",
								"extTaxDetailId":"123",
								"itemType":""
                            },
                            {  
                                "requestType":"Quotation",
                                "taxCategory":"Sales Tax",
                                "taxLocationName":"City",
                                "taxName":"Wayne",
                                "taxAmount":2.00,
                                "taxDTTM":"11/04/15 12:32 EST",
								"extTaxDetailId":"123",
								"itemType":""
                            },
                            {  
                                "requestType":"Quotation",
                                "taxCategory":"Sales Tax",
                                "taxLocationName":"County",
                                "taxName":"Passiac",
                                "taxAmount":1.00,
                                "taxDTTM":"11/04/15 12:32 EST",
								"extTaxDetailId":"123",
								"itemType":""
                            },
                            {  
                                "requestType":"Quotation",
                                "taxCategory":"Sales Tax",
                                "taxLocationName":"SecondoryState",
                                "taxName":"NJ",
                                "taxAmount":1.00,
                                "taxDTTM":"11/04/15 12:32 EST",
								"extTaxDetailId":"123",
								"itemType":""
                            },
                            {  
                                "requestType":"Quotation",
                                "taxCategory":"Sales Tax",
                                "taxLocationName":"SecondoryCity",
                                "taxName":"Wayne",
                                "taxAmount":1.00,
                                "taxDTTM":"11/04/15 12:32 EST",
								"extTaxDetailId":"123",
								"itemType":""
                            },
                            {  
                                "requestType":"Quotation",
                                "taxCategory":"Sales Tax",
                                "taxLocationName":"SecondoryCounty",
                                "taxName":"Passiac",
                                "taxAmount":1.00,
                                "taxDTTM":"11/04/15 12:32 EST",
								"extTaxDetailId":"123",
								"itemType":""
                            },
                            {  
                                "requestType":"Quotation",
                                "taxCategory":"Sales Tax",
                                "chargeCategory":"Shipping",
                                "chargeName":"Shipping-12345",
                                "taxLocationName":"State",
                                "taxName":"NJ",
                                "taxAmount":4.00,
                                "taxDTTM":"11/04/15 12:32 EST",
								"extTaxDetailId":"123",
								"itemType":""
                            },
                            {  
                                "requestType":"Quotation",
                                "taxCategory":"Sales Tax",
                                "chargeCategory":"Shipping",
                                "chargeName":"Shipping-12345",
                                "taxLocationName":"City",
                                "taxName":"Wayne",
                                "taxAmount":2.00,
                                "taxDTTM":"11/04/15 12:32 EST",
								"extTaxDetailId":"123",
								"itemType":""
                            },
                            {  
                                "requestType":"Quotation",
                                "taxCategory":"Sales Tax",
                                "chargeCategory":"Shipping",
                                "chargeName":"Shipping-12345",
                                "taxLocationName":"County",
                                "taxName":"Passiac",
                                "taxAmount":1.00,
                                "taxDTTM":"11/04/15 12:32 EST",
								"extTaxDetailId":"123",
								"itemType":""
                            },
                            {  
                                "requestType":"Quotation",
                                "taxCategory":"Sales Tax",
                                "chargeCategory":"Shipping",
                                "chargeName":"Shipping-12345",
                                "taxLocationName":"SecondoryState",
                                "taxName":"NJ",
                                "taxAmount":1.00,
                                "taxDTTM":"11/04/15 12:32 EST",
								"extTaxDetailId":"123",
								"itemType":""
                            },
                            {  
                                "requestType":"Quotation",
                                "taxCategory":"Sales Tax",
                                "chargeCategory":"Shipping",
                                "chargeName":"Shipping-12345",
                                "taxLocationName":"SecondoryCity",
                                "taxName":"Wayne",
                                "taxAmount":1.00,
                                "taxDTTM":"11/04/15 12:32 EST",
								"extTaxDetailId":"123",
								"itemType":""
                            },
                            {  
                                "requestType":"Quotation",
                                "taxCategory":"Sales Tax",
                                "chargeCategory":"Shipping",
                                "chargeName":"Shipping-12345",
                                "taxLocationName":"SecondoryCounty",
                                "taxName":"Passiac",
                                "taxAmount":1.00,
                                "taxDTTM":"11/04/15 12:32 EST",
								"extTaxDetailId":"123",
								"itemType":""
                            }
                        ]
                    },
                    "notes":{  
                        "note":[  
                            {  
                                "noteType":"VS",
                                "noteCode":"GW",
                                "noteText":"Gift Wrap-XXXXXX"
                            },
                            {  
                                "noteType":"Gift Message",
                                "noteText":"Happy new year 2016!"
                            },
                            {  
                                "noteType":"Registry Info",
                                "noteText":"From Lindsay Lowe & Robby Loew’s Baby Registry #11111111"
                            }
                        ]
                    },
					"customAttributeList" : [
						{
							"name" : "PrimaryFirstName",
							"value" : "Mahesh"
                        },
                        {
							"name" : "PrimaryLastName",
                            "value" : "Mahajan"
                        },
                        {
							"name" : "PrimaryEmail",
							"value" : "accept@email.com"
                        },
                        {
							"name" : "PrimaryPhone",
							"value" : "973-570-8191"
                        }
                    ],
                    "referenceFields":{  
                        "referenceField2":"NON-SLAPPER",
                        "referenceField3":"TRU",
                        "referenceField4":"11111111",
                        "referenceField5":"B",
                        "referenceField9":"Y",
                        "referenceNumber1":1,
						"referenceNumber3":"2",
						"referenceNumber4":"3"
                    },
                    "chargeDetails":{  
                        "chargeDetail":[  
                            {  
								"extChargeDetailId": "1",
                                "chargeCategory":"Shipping",
                                "chargeName":"Shipping-XXXXXX",
                                "chargeAmount":2.5,
                                "unitCharge":2.5,
								"itemType":""
                            },
                            {  
								"extChargeDetailId": "1",
                                "chargeCategory":"VAS",
                                "chargeName":"BPP-XXXXXX",
                                "chargeAmount":2.5,
                                "unitCharge":0.5,
								"itemType":""
                            }
                        ]
                    },					
					"relationshipId":"",
					"commerceItemId":"",
					"amountDiscounted":"",
					"quantityRemaining":"",
					"shippingGroupId":""
                },
				{  
                    "orderLineNumber":"1",
                    "itemId":"EF22C94C",
                    "isGift":false,
					"lineTotal":20.00,
					"unitPriceAmount":9.99,
                    "priceDetails":{  
                        "price":19.99,
                        "extendedPrice":119.94,
                        "isPriceOverridden":false
                    },
                    "orderedQuantity":5,
                    "orderedQtyUOM":"Unit",
                    "shippingInfo":{  
                        "shipVia":"1DAY",
                        "deliveryOption":"Ship to address",
						"shipToFacility":"123",
                        "shippingAddress":{  
                            "firstName":"Jane",
                            "lastName":"Smith",
                            "addressLine1":"1 Geoffrey Way",
                            "addressLine2":"",
                            "addressLine3":"",
                            "city":"Wayne",
                            "stateProv":"NJ",
                            "country":"US",
                            "postalCode":"07470-2035",
                            "phone":"9736173708",
                            "email":"dummy@test.com"
                        }
                    },
					"allocationInfo" : {
						"fulfillmentFacility" : "6182"
					},
                    "discountDetails":{  
                        "discountDetail":[  
                            {  
                                "extDiscountDetailId":"12345",
                                "extDiscountId":"123",
                                "discountType":"Coupon",
                                "discountAmount":10.00,
                                "referenceField1":"V",
                                "referenceField2":"coupon12345",
                                "referenceField3":"10.00",
                                "referenceField4":"Item-EF22C94C",
                                "referenceField5":"TRU coupon 10 off"
                            },
                            {  
                                "extDiscountDetailId":"12346",
                                "discountAmount":10.00,
                                "referenceField1":"V",
                                "referenceField2":"shipping12345",
                                "referenceField3":"10.00",
                                "referenceField4":"Shipping 10-EF22C94C",
                                "referenceField5":"Shipping discount 10% off"
                            }
                        ]
                    },
                    "taxDetails":{  
                        "taxDetail":[  
                            {  
                                "requestType":"Quotation",
                                "taxCategory":"Sales Tax",
                                "taxLocationName":"State",
                                "taxName":"NJ",
                                "taxAmount":4.00,
                                "taxDTTM":"11/04/15 12:32 EST",
								"extTaxDetailId":"123",
								"itemType":""
                            },
                            {  
                                "requestType":"Quotation",
                                "taxCategory":"Sales Tax",
                                "taxLocationName":"City",
                                "taxName":"Wayne",
                                "taxAmount":2.00,
                                "taxDTTM":"11/04/15 12:32 EST",
								"extTaxDetailId":"123",
								"itemType":""
                            },
                            {  
                                "requestType":"Quotation",
                                "taxCategory":"Sales Tax",
                                "taxLocationName":"County",
                                "taxName":"Passiac",
                                "taxAmount":1.00,
                                "taxDTTM":"11/04/15 12:32 EST",
								"extTaxDetailId":"123",
								"itemType":""
                            },
                            {  
                                "requestType":"Quotation",
                                "taxCategory":"Sales Tax",
                                "taxLocationName":"SecondoryState",
                                "taxName":"NJ",
                                "taxAmount":1.00,
                                "taxDTTM":"11/04/15 12:32 EST",
								"extTaxDetailId":"123",
								"itemType":""
                            },
                            {  
                                "requestType":"Quotation",
                                "taxCategory":"Sales Tax",
                                "taxLocationName":"SecondoryCity",
                                "taxName":"Wayne",
                                "taxAmount":1.00,
                                "taxDTTM":"11/04/15 12:32 EST",
								"extTaxDetailId":"123",
								"itemType":""
                            },
                            {  
                                "requestType":"Quotation",
                                "taxCategory":"Sales Tax",
                                "taxLocationName":"SecondoryCounty",
                                "taxName":"Passiac",
                                "taxAmount":1.00,
                                "taxDTTM":"11/04/15 12:32 EST",
								"extTaxDetailId":"123",
								"itemType":""
                            },
                            {  
                                "requestType":"Quotation",
                                "taxCategory":"Sales Tax",
                                "chargeCategory":"Shipping",
                                "chargeName":"Shipping-12345",
                                "taxLocationName":"State",
                                "taxName":"NJ",
                                "taxAmount":4.00,
                                "taxDTTM":"11/04/15 12:32 EST",
								"extTaxDetailId":"123",
								"itemType":""
                            },
                            {  
                                "requestType":"Quotation",
                                "taxCategory":"Sales Tax",
                                "chargeCategory":"Shipping",
                                "chargeName":"Shipping-12345",
                                "taxLocationName":"City",
                                "taxName":"Wayne",
                                "taxAmount":2.00,
                                "taxDTTM":"11/04/15 12:32 EST",
								"extTaxDetailId":"123",
								"itemType":""
                            },
                            {  
                                "requestType":"Quotation",
                                "taxCategory":"Sales Tax",
                                "chargeCategory":"Shipping",
                                "chargeName":"Shipping-12345",
                                "taxLocationName":"County",
                                "taxName":"Passiac",
                                "taxAmount":1.00,
                                "taxDTTM":"11/04/15 12:32 EST",
								"extTaxDetailId":"123",
								"itemType":""
                            },
                            {  
                                "requestType":"Quotation",
                                "taxCategory":"Sales Tax",
                                "chargeCategory":"Shipping",
                                "chargeName":"Shipping-12345",
                                "taxLocationName":"SecondoryState",
                                "taxName":"NJ",
                                "taxAmount":1.00,
                                "taxDTTM":"11/04/15 12:32 EST",
								"extTaxDetailId":"123",
								"itemType":""
                            },
                            {  
                                "requestType":"Quotation",
                                "taxCategory":"Sales Tax",
                                "chargeCategory":"Shipping",
                                "chargeName":"Shipping-12345",
                                "taxLocationName":"SecondoryCity",
                                "taxName":"Wayne",
                                "taxAmount":1.00,
                                "taxDTTM":"11/04/15 12:32 EST",
								"extTaxDetailId":"123",
								"itemType":""
                            },
                            {  
                                "requestType":"Quotation",
                                "taxCategory":"Sales Tax",
                                "chargeCategory":"Shipping",
                                "chargeName":"Shipping-12345",
                                "taxLocationName":"SecondoryCounty",
                                "taxName":"Passiac",
                                "taxAmount":1.00,
                                "taxDTTM":"11/04/15 12:32 EST",
								"extTaxDetailId":"123",
								"itemType":""
                            }
                        ]
                    },
                    "notes":{  
                        "note":[  
                            {  
                                "noteType":"VS",
                                "noteCode":"GW",
                                "noteText":"Gift Wrap-XXXXXX"
                            },
                            {  
                                "noteType":"Gift Message",
                                "noteText":"Happy new year 2016!"
                            },
                            {  
                                "noteType":"Registry Info",
                                "noteText":"From Lindsay Lowe & Robby Loew’s Baby Registry #11111111"
                            }
                        ]
                    },
					"customAttributeList" : [
						{
							"name" : "PrimaryFirstName",
							"value" : "Mahesh"
                        },
                        {
							"name" : "PrimaryLastName",
                            "value" : "Mahajan"
                        },
                        {
							"name" : "PrimaryEmail",
							"value" : "accept@email.com"
                        },
                        {
							"name" : "PrimaryPhone",
							"value" : "973-570-8191"
                        }
                    ],
                    "referenceFields":{  
                        "referenceField2":"NON-SLAPPER",
                        "referenceField3":"TRU",
                        "referenceField4":"11111111",
                        "referenceField5":"B",
                        "referenceField9":"Y",
                        "referenceNumber1":1,
						"referenceNumber3":"2",
						"referenceNumber4":"3"
                    },
                    "chargeDetails":{  
                        "chargeDetail":[  
                            {  
								"extChargeDetailId": "1",
                                "chargeCategory":"Shipping",
                                "chargeName":"Shipping-XXXXXX",
                                "chargeAmount":2.5,
                                "unitCharge":2.5,
								"itemType":""
                            },
                            {  
								"extChargeDetailId": "1",
                                "chargeCategory":"VAS",
                                "chargeName":"BPP-XXXXXX",
                                "chargeAmount":2.5,
                                "unitCharge":0.5,
								"itemType":""
                            }
                        ]
                    },
					"relationshipId":"",
					"commerceItemId":"",
					"amountDiscounted":"",
					"quantityRemaining":"",
					"shippingGroupId":""
                },
				{  
                    "orderLineNumber":"1",
                    "itemId":"EF22C94C",
                    "isGift":false,
					"lineTotal":20.00,
					"unitPriceAmount":9.99,
                    "priceDetails":{  
                        "price":19.99,
                        "extendedPrice":119.94,
                        "isPriceOverridden":false
                    },
                    "orderedQuantity":5,
                    "orderedQtyUOM":"Unit",
                    "shippingInfo":{  
                        "shipVia":"1DAY",
                        "deliveryOption":"Ship to address",
						"shipToFacility":"123",
                        "shippingAddress":{  
                            "firstName":"Jane",
                            "lastName":"Smith",
                            "addressLine1":"1 Geoffrey Way",
                            "addressLine2":"",
                            "addressLine3":"",
                            "city":"Wayne",
                            "stateProv":"NJ",
                            "country":"US",
                            "postalCode":"07470-2035",
                            "phone":"9736173708",
                            "email":"dummy@test.com"
                        }
                    },
					"allocationInfo" : {
						"fulfillmentFacility" : "6182"
					},
                    "discountDetails":{  
                        "discountDetail":[  
                            {  
                                "extDiscountDetailId":"12345",
                                "extDiscountId":"123",
                                "discountType":"Coupon",
                                "discountAmount":10.00,
                                "referenceField1":"V",
                                "referenceField2":"coupon12345",
                                "referenceField3":"10.00",
                                "referenceField4":"Item-EF22C94C",
                                "referenceField5":"TRU coupon 10 off"
                            },
                            {  
                                "extDiscountDetailId":"12346",
                                "discountAmount":10.00,
                                "referenceField1":"V",
                                "referenceField2":"shipping12345",
                                "referenceField3":"10.00",
                                "referenceField4":"Shipping 10-EF22C94C",
                                "referenceField5":"Shipping discount 10% off"
                            }
                        ]
                    },
                    "taxDetails":{  
                        "taxDetail":[  
                            {  
                                "requestType":"Quotation",
                                "taxCategory":"Sales Tax",
                                "taxLocationName":"State",
                                "taxName":"NJ",
                                "taxAmount":4.00,
                                "taxDTTM":"11/04/15 12:32 EST",
								"extTaxDetailId":"123",
								"itemType":""
                            },
                            {  
                                "requestType":"Quotation",
                                "taxCategory":"Sales Tax",
                                "taxLocationName":"City",
                                "taxName":"Wayne",
                                "taxAmount":2.00,
                                "taxDTTM":"11/04/15 12:32 EST",
								"extTaxDetailId":"123",
								"itemType":""
                            },
                            {  
                                "requestType":"Quotation",
                                "taxCategory":"Sales Tax",
                                "taxLocationName":"County",
                                "taxName":"Passiac",
                                "taxAmount":1.00,
                                "taxDTTM":"11/04/15 12:32 EST",
								"extTaxDetailId":"123",
								"itemType":""
                            },
                            {  
                                "requestType":"Quotation",
                                "taxCategory":"Sales Tax",
                                "taxLocationName":"SecondoryState",
                                "taxName":"NJ",
                                "taxAmount":1.00,
                                "taxDTTM":"11/04/15 12:32 EST",
								"extTaxDetailId":"123",
								"itemType":""
                            },
                            {  
                                "requestType":"Quotation",
                                "taxCategory":"Sales Tax",
                                "taxLocationName":"SecondoryCity",
                                "taxName":"Wayne",
                                "taxAmount":1.00,
                                "taxDTTM":"11/04/15 12:32 EST",
								"extTaxDetailId":"123",
								"itemType":""
                            },
                            {  
                                "requestType":"Quotation",
                                "taxCategory":"Sales Tax",
                                "taxLocationName":"SecondoryCounty",
                                "taxName":"Passiac",
                                "taxAmount":1.00,
                                "taxDTTM":"11/04/15 12:32 EST",
								"extTaxDetailId":"123",
								"itemType":""
                            },
                            {  
                                "requestType":"Quotation",
                                "taxCategory":"Sales Tax",
                                "chargeCategory":"Shipping",
                                "chargeName":"Shipping-12345",
                                "taxLocationName":"State",
                                "taxName":"NJ",
                                "taxAmount":4.00,
                                "taxDTTM":"11/04/15 12:32 EST",
								"extTaxDetailId":"123",
								"itemType":""
                            },
                            {  
                                "requestType":"Quotation",
                                "taxCategory":"Sales Tax",
                                "chargeCategory":"Shipping",
                                "chargeName":"Shipping-12345",
                                "taxLocationName":"City",
                                "taxName":"Wayne",
                                "taxAmount":2.00,
                                "taxDTTM":"11/04/15 12:32 EST",
								"extTaxDetailId":"123",
								"itemType":""
                            },
                            {  
                                "requestType":"Quotation",
                                "taxCategory":"Sales Tax",
                                "chargeCategory":"Shipping",
                                "chargeName":"Shipping-12345",
                                "taxLocationName":"County",
                                "taxName":"Passiac",
                                "taxAmount":1.00,
                                "taxDTTM":"11/04/15 12:32 EST",
								"extTaxDetailId":"123",
								"itemType":""
                            },
                            {  
                                "requestType":"Quotation",
                                "taxCategory":"Sales Tax",
                                "chargeCategory":"Shipping",
                                "chargeName":"Shipping-12345",
                                "taxLocationName":"SecondoryState",
                                "taxName":"NJ",
                                "taxAmount":1.00,
                                "taxDTTM":"11/04/15 12:32 EST",
								"extTaxDetailId":"123",
								"itemType":""
                            },
                            {  
                                "requestType":"Quotation",
                                "taxCategory":"Sales Tax",
                                "chargeCategory":"Shipping",
                                "chargeName":"Shipping-12345",
                                "taxLocationName":"SecondoryCity",
                                "taxName":"Wayne",
                                "taxAmount":1.00,
                                "taxDTTM":"11/04/15 12:32 EST",
								"extTaxDetailId":"123",
								"itemType":""
                            },
                            {  
                                "requestType":"Quotation",
                                "taxCategory":"Sales Tax",
                                "chargeCategory":"Shipping",
                                "chargeName":"Shipping-12345",
                                "taxLocationName":"SecondoryCounty",
                                "taxName":"Passiac",
                                "taxAmount":1.00,
                                "taxDTTM":"11/04/15 12:32 EST",
								"extTaxDetailId":"123",
								"itemType":""
                            }
                        ]
                    },
                    "notes":{  
                        "note":[  
                            {  
                                "noteType":"VS",
                                "noteCode":"GW",
                                "noteText":"Gift Wrap-XXXXXX"
                            },
                            {  
                                "noteType":"Gift Message",
                                "noteText":"Happy new year 2016!"
                            },
                            {  
                                "noteType":"Registry Info",
                                "noteText":"From Lindsay Lowe & Robby Loew’s Baby Registry #11111111"
                            }
                        ]
                    },
					"customAttributeList" : [
						{
							"name" : "PrimaryFirstName",
							"value" : "Mahesh"
                        },
                        {
							"name" : "PrimaryLastName",
                            "value" : "Mahajan"
                        },
                        {
							"name" : "PrimaryEmail",
							"value" : "accept@email.com"
                        },
                        {
							"name" : "PrimaryPhone",
							"value" : "973-570-8191"
                        }
                    ],
                    "referenceFields":{  
                        "referenceField2":"NON-SLAPPER",
                        "referenceField3":"TRU",
                        "referenceField4":"11111111",
                        "referenceField5":"B",
                        "referenceField9":"Y",
                        "referenceNumber1":1,
						"referenceNumber3":"2",
						"referenceNumber4":"3"
                    },
                    "chargeDetails":{  
                        "chargeDetail":[  
                            {  
								"extChargeDetailId": "1",
                                "chargeCategory":"Shipping",
                                "chargeName":"Shipping-XXXXXX",
                                "chargeAmount":2.5,
                                "unitCharge":2.5,
								"itemType":""
                            },
                            {  
								"extChargeDetailId": "1",
                                "chargeCategory":"VAS",
                                "chargeName":"BPP-XXXXXX",
                                "chargeAmount":2.5,
                                "unitCharge":0.5,
								"itemType":""
                            }
                        ]
                    },
					"relationshipId":"",
					"commerceItemId":"",
					"amountDiscounted":"",
					"quantityRemaining":"",
					"shippingGroupId":""
                }
            ]
        }
    }
}