RESPONSEFILE_VERSION=2.2.1.0.0
UNIX_GROUP_NAME="Oracle"
FROM_LOCATION="/data/endeca/installs11.2/Tools/cd/Disk1/stage/products.xml"
FROM_LOCATION_CD_LABEL=<Value Unspecified>
# ORACLE_HOME=""
ORACLE_BASE=<Value Unspecified>
# ORACLE_HOME_NAME=""
SHOW_WELCOME_PAGE=true
SHOW_CUSTOM_TREE_PAGE=true
SHOW_COMPONENT_LOCATIONS_PAGE=true
SHOW_SUMMARY_PAGE=true
SHOW_INSTALL_PROGRESS_PAGE=true
SHOW_REQUIRED_CONFIG_TOOL_PAGE=true
SHOW_CONFIG_TOOL_PAGE=true
SHOW_RELEASE_NOTES=true
SHOW_ROOTSH_CONFIRMATION=true
SHOW_END_SESSION_PAGE=true
SHOW_EXIT_CONFIRMATION=true
NEXT_SESSION=false
NEXT_SESSION_ON_FAIL=true
NEXT_SESSION_RESPONSE=<Value Unspecified>
DEINSTALL_LIST={"oracle.endeca.commerce","11.2.0.0.0"}
SHOW_DEINSTALL_CONFIRMATION=true
SHOW_DEINSTALL_PROGRESS=true
CLUSTER_NODES={}
ACCEPT_LICENSE_AGREEMENT=true
METALINK_LOCATION=<Value Unspecified>
METALINK_USERNAME=<Value Unspecified>
METALINK_PASSWORD=<Value Unspecified>
PROXY_HOST=""
PROXY_PORT=""
PROXY_REALM=<Value Unspecified>
PROXY_USER=""
PROXY_PWD=<Value Unspecified>
DONT_PROXY_FOR=<Value Unspecified>
TOPLEVEL_COMPONENT={"oracle.endeca.commerce","11.2.0.0.0"}
SHOW_SPLASH_SCREEN=true
SELECTED_LANGUAGES={"en"}
COMPONENT_LANGUAGES={"en"}
INSTALL_TYPE="Complete Installation"
# PASSWORD_VALIDATION=""
